format 221
"cas_utilisation"
  revision 1
  modified_by 2 "lebec"


  
  // class settings
  default_attribute_visibility private default_relation_visibility private default_operation_visibility public
  
  classdiagramsettings draw_all_relations yes hide_attributes no hide_operations no hide_getset_operations no hide_ports no show_members_full_definition no show_members_visibility no show_members_stereotype no show_members_context no show_members_multiplicity no show_members_initialization no show_attribute_modifiers no member_max_width 127 show_parameter_dir yes show_parameter_name yes package_name_in_tab no class_drawing_mode natural drawing_language uml show_context_mode no auto_label_position yes show_relation_modifiers no show_relation_visibility no show_infonote no shadow yes gradient none show_stereotype_properties no end
  
  classcompositediagramsettings auto_label_position yes draw_all_relations yes shadow yes gradient none end
  
  usecasediagramsettings package_name_in_tab no show_context_mode no auto_label_position yes draw_all_relations yes class_drawing_mode actor shadow yes gradient none show_stereotype_properties no end
  
  sequencediagramsettings show_full_operations_definition no show_class_of_operation no write_horizontally yes instances_drawing_mode natural drawing_language uml draw_all_relations yes shadow yes gradient none show_stereotype_properties no show_class_context_mode no show_msg_context_mode no end
  
  collaborationdiagramsettings show_full_operations_definition no show_class_of_operation no show_hierarchical_rank no write_horizontally yes instances_drawing_mode natural drawing_language uml package_name_in_tab no show_class_pack_context_mode no show_msg_context_mode no draw_all_relations yes shadow yes gradient none show_stereotype_properties no end
  
  objectdiagramsettings write_horizontally yes package_name_in_tab no show_class_pack_context_mode no auto_label_position yes draw_all_relations yes shadow yes gradient none show_stereotype_properties no end
  
  objectcompositediagramsettings auto_label_position yes draw_all_relations yes shadow yes gradient none end
  
  componentdiagramsettings package_name_in_tab no show_context_mode no auto_label_position yes draw_all_relations yes shadow yes gradient none
   draw_component_as_icon no show_component_req_prov no show_component_rea no show_stereotype_properties no end
  
  deploymentdiagramsettings package_name_in_tab no show_context_mode no write_horizontally yes auto_label_position yes draw_all_relations yes shadow yes gradient none
   draw_component_as_icon no show_component_req_prov no show_component_rea no show_stereotype_properties no end
  
  statediagramsettings package_name_in_tab no show_context_mode no auto_label_position yes write_label_horizontally yes show_trans_definition no draw_all_relations yes shadow yes gradient none
   show_activities yes region_horizontally yes drawing_language uml show_stereotype_properties no end
  
  activitydiagramsettings package_name_in_tab no show_context_mode no show_opaque_action_definition no auto_label_position yes write_label_horizontally no draw_all_relations yes shadow yes gradient none
   show_infonote yes drawing_language uml show_stereotype_properties no end
  
  class_color yellow duration_color transparent continuation_color gray note_color blue fragment_color transparent subject_color transparent usecase_color yellow package_color transparent component_color green artifact_color green deploymentnode_color gray state_color yellow stateaction_color transparent activity_color transparent activityregion_color transparent activitypartition_color transparent activityaction_color transparent parameterpin_color white generalization_color black 
  dpi 96
  font_size 8
  diagram_format A4

  image_root_dir ""


  mark_for_import
  
  usecaseview 128002 "Cas utilisation"
    
    usecasediagramsettings end
    
    sequencediagramsettings end
    
    collaborationdiagramsettings end
    
    classdiagramsettings member_max_width 0 end
    
    classcompositediagramsettings end
    
    objectdiagramsettings end
    
    objectcompositediagramsettings end
    
    statediagramsettings
     end
    
    activitydiagramsettings
     end
    usecasediagram 128002 "Loca'Com"
      usecasediagramsettings draw_all_relations no end
      size A4
    end

    class 128002 "Utilisateur"
      visibility package stereotype "actor"
      cpp_decl ""
      java_decl ""
      php_decl ""
      python_2_2 python_decl ""
      idl_decl ""
      explicit_switch_type ""
      mysql_decl ""
      
    end

    usecase 128002 "Lister"
      
      usecasediagramsettings end
      
      sequencediagramsettings end
      
      collaborationdiagramsettings end
      
      classdiagramsettings member_max_width 0 end
      
      classcompositediagramsettings end
      
      objectdiagramsettings end
      
      objectcompositediagramsettings end
      
      statediagramsettings
       end
      
      activitydiagramsettings
       end
      simplerelation 128002
	---|>
	  on usecase_ref 128386 // Panneau
      end

      simplerelation 128258
	---|>
	  on usecase_ref 128770 // gestion
      end
    end

    usecase 128130 "Ajouter"
      
      usecasediagramsettings end
      
      sequencediagramsettings end
      
      collaborationdiagramsettings end
      
      classdiagramsettings member_max_width 0 end
      
      classcompositediagramsettings end
      
      objectdiagramsettings end
      
      objectcompositediagramsettings end
      
      statediagramsettings
       end
      
      activitydiagramsettings
       end
      simplerelation 128386
	---|>
	  on usecase_ref 128770 // gestion
      end
    end

    usecase 128258 "Supprimer"
      
      usecasediagramsettings end
      
      sequencediagramsettings end
      
      collaborationdiagramsettings end
      
      classdiagramsettings member_max_width 0 end
      
      classcompositediagramsettings end
      
      objectdiagramsettings end
      
      objectcompositediagramsettings end
      
      statediagramsettings
       end
      
      activitydiagramsettings
       end
      simplerelation 128514
	---|>
	  on usecase_ref 128770 // gestion
      end
    end

    usecase 128386 "Panneau"
      
      usecasediagramsettings end
      
      sequencediagramsettings end
      
      collaborationdiagramsettings end
      
      classdiagramsettings member_max_width 0 end
      
      classcompositediagramsettings end
      
      objectdiagramsettings end
      
      objectcompositediagramsettings end
      
      statediagramsettings
       end
      
      activitydiagramsettings
       end
      simplerelation 128130
	-_->
	  on usecase_ref 128002 // Lister
      end
    end

    usecase 128514 "Location"
      
      usecasediagramsettings end
      
      sequencediagramsettings end
      
      collaborationdiagramsettings end
      
      classdiagramsettings member_max_width 0 end
      
      classcompositediagramsettings end
      
      objectdiagramsettings end
      
      objectcompositediagramsettings end
      
      statediagramsettings
       end
      
      activitydiagramsettings
       end
    end

    usecase 128642 "Client"
      
      usecasediagramsettings end
      
      sequencediagramsettings end
      
      collaborationdiagramsettings end
      
      classdiagramsettings member_max_width 0 end
      
      classcompositediagramsettings end
      
      objectdiagramsettings end
      
      objectcompositediagramsettings end
      
      statediagramsettings
       end
      
      activitydiagramsettings
       end
    end

    usecase 128770 "gestion"
      
      usecasediagramsettings end
      
      sequencediagramsettings end
      
      collaborationdiagramsettings end
      
      classdiagramsettings member_max_width 0 end
      
      classcompositediagramsettings end
      
      objectdiagramsettings end
      
      objectcompositediagramsettings end
      
      statediagramsettings
       end
      
      activitydiagramsettings
       end
    end

    usecase 128898 "Sauvegarder"
      
      usecasediagramsettings end
      
      sequencediagramsettings end
      
      collaborationdiagramsettings end
      
      classdiagramsettings member_max_width 0 end
      
      classcompositediagramsettings end
      
      objectdiagramsettings end
      
      objectcompositediagramsettings end
      
      statediagramsettings
       end
      
      activitydiagramsettings
       end
      simplerelation 128642
	---|>
	  on usecase_ref 128770 // gestion
      end
    end
  end
end
